<?xml version="1.0" encoding="utf-8"?><!-- Uploaded to: SVG Repo, www.svgrepo.com, Generator: SVG Repo Mixer Tools -->
<svg width="800px" height="800px" viewBox="0 0 24 24" fill="none" xmlns="http://www.w3.org/2000/svg">
<path d="M12.37 8.87988H17.62" stroke="#f9f9f9" stroke-width="1.5" stroke-linecap="round" stroke-linejoin="round"/>
<path d="M6.38 8.87988L7.13 9.62988L9.38 7.37988" stroke="#f9f9f9" stroke-width="1.5" stroke-linecap="round" stroke-linejoin="round"/>
<path d="M12.37 15.8799H17.62" stroke="#f9f9f9" stroke-width="1.5" stroke-linecap="round" stroke-linejoin="round"/>
<path d="M6.38 15.8799L7.13 16.6299L9.38 14.3799" stroke="#f9f9f9" stroke-width="1.5" stroke-linecap="round" stroke-linejoin="round"/>
<path d="M9 22H15C20 22 22 20 22 15V9C22 4 20 2 15 2H9C4 2 2 4 2 9V15C2 20 4 22 9 22Z" stroke="#f9f9f9" stroke-width="1.5" stroke-linecap="round" stroke-linejoin="round"/>
</svg>